simulation/qsim/automacao.msim.vcd
$comment
	File created using the following command:
		vcd file automacao.msim.vcd -direction
$end
$date
	Sun Feb 25 20:50:22 2024
$end
$version
	ModelSim Version 2020.1
$end
$timescale
	1ps
$end

$scope module automacao_vlg_vec_tst $end
$var reg 1 ! CH_button $end
$var reg 1 " PG_button $end
$var reg 1 # RO_button $end
$var reg 1 $ clk50MHz $end
$var reg 1 % start $end
$var wire 1 & A $end
$var wire 1 ' AD $end
$var wire 1 ( CH_Out $end
$var wire 1 ) EV $end
$var wire 1 * GP_led $end
$var wire 1 + M $end
$var wire 1 , PG_Out $end
$var wire 1 - RO_Out $end
$var wire 1 . VE $end
$var wire 1 / display_colune [3] $end
$var wire 1 0 display_colune [2] $end
$var wire 1 1 display_colune [1] $end
$var wire 1 2 display_colune [0] $end
$var wire 1 3 display_data [6] $end
$var wire 1 4 display_data [5] $end
$var wire 1 5 display_data [4] $end
$var wire 1 6 display_data [3] $end
$var wire 1 7 display_data [2] $end
$var wire 1 8 display_data [1] $end
$var wire 1 9 display_data [0] $end
$var wire 1 : reabastecer_led $end

$scope module i1 $end
$var wire 1 ; gnd $end
$var wire 1 < vcc $end
$var wire 1 = unknown $end
$var tri1 1 > devclrn $end
$var tri1 1 ? devpor $end
$var tri1 1 @ devoe $end
$var wire 1 A clk50MHz~combout $end
$var wire 1 B PG_button~combout $end
$var wire 1 C debouncer_PG|andClk~combout $end
$var wire 1 D debouncer_PG|tff0|out~regout $end
$var wire 1 E debouncer_PG|tff1|out~regout $end
$var wire 1 F debouncer_PG|tff2|out~regout $end
$var wire 1 G debouncer_PG|tff3|out~regout $end
$var wire 1 H debouncer_PG|and2~0_combout $end
$var wire 1 I debouncer_PG|tff4|out~regout $end
$var wire 1 J debouncer_PG|and0~combout $end
$var wire 1 K FF_PG|out~regout $end
$var wire 1 L CH_button~combout $end
$var wire 1 M debouncer_CH|andClk~combout $end
$var wire 1 N debouncer_CH|tff0|out~regout $end
$var wire 1 O debouncer_CH|tff1|out~regout $end
$var wire 1 P debouncer_CH|tff2|out~regout $end
$var wire 1 Q debouncer_CH|and2~0_combout $end
$var wire 1 R debouncer_CH|tff3|out~regout $end
$var wire 1 S debouncer_CH|tff4|out~regout $end
$var wire 1 T debouncer_CH|and0~combout $end
$var wire 1 U FF_CH|out~regout $end
$var wire 1 V start~combout $end
$var wire 1 W debouncer_start|andClk~combout $end
$var wire 1 X debouncer_start|tff0|out~regout $end
$var wire 1 Y debouncer_start|tff1|out~regout $end
$var wire 1 Z debouncer_start|tff2|out~regout $end
$var wire 1 [ debouncer_start|tff3|out~regout $end
$var wire 1 \ debouncer_start|and2~0_combout $end
$var wire 1 ] debouncer_start|tff4|out~regout $end
$var wire 1 ^ debouncer_start|and0~combout $end
$var wire 1 _ ON_OFF|out~regout $end
$var wire 1 ` fsm_dispensador_1|AD~0_combout $end
$var wire 1 a fsm_producao|state~regout $end
$var wire 1 b RO_button~combout $end
$var wire 1 c debouncer_RO|andClk~combout $end
$var wire 1 d debouncer_RO|tff0|out~regout $end
$var wire 1 e debouncer_RO|tff1|out~regout $end
$var wire 1 f debouncer_RO|tff2|out~regout $end
$var wire 1 g debouncer_RO|tff3|out~regout $end
$var wire 1 h debouncer_RO|and2~0_combout $end
$var wire 1 i debouncer_RO|tff4|out~regout $end
$var wire 1 j debouncer_RO|and0~combout $end
$var wire 1 k FF_RO|out~regout $end
$var wire 1 l fsm_producao|GP~combout $end
$var wire 1 m rtl~0_combout $end
$var wire 1 n fsm_dispensador_1|AD~combout $end
$var wire 1 o dispensador_1|reabastecer~combout $end
$var wire 1 p bandeja_1|comb~0_combout $end
$var wire 1 q fsm_dispensador_1|next[1]~0_combout $end
$var wire 1 r fsm_dispensador_1|next[1]~1_combout $end
$var wire 1 s bandeja_1|counter_unidades|Equal0~0_combout $end
$var wire 1 t fsm_producao|EV~0_combout $end
$var wire 1 u fsm_producao|EV~combout $end
$var wire 1 v fsm_producao|VE~0_combout $end
$var wire 1 w fsm_producao|M~0_combout $end
$var wire 1 x fsm_dispensador_1|A~combout $end
$var wire 1 y colune_decoder_1|display_colune~0_combout $end
$var wire 1 z colune_decoder_1|display_colune~1_combout $end
$var wire 1 { colune_decoder_1|display_colune~2_combout $end
$var wire 1 | colune_decoder_1|display_colune~3_combout $end
$var wire 1 } rtl~1_combout $end
$var wire 1 ~ rtl~2_combout $end
$var wire 1 !! display_data_mux|Mux2~0_combout $end
$var wire 1 "! display_data_mux|Mux2~1_combout $end
$var wire 1 #! display_data_mux|Mux1~0_combout $end
$var wire 1 $! display_data_mux|Mux1~1_combout $end
$var wire 1 %! display_data_mux|Mux0~0_combout $end
$var wire 1 &! display_data_mux|Mux0~1_combout $end
$var wire 1 '! display_decoder_1|and60~0_combout $end
$var wire 1 (! display_data_mux|Mux3~0_combout $end
$var wire 1 )! display_data_mux|Mux3~1_combout $end
$var wire 1 *! display_decoder_1|orEnable[0]~0_combout $end
$var wire 1 +! display_decoder_1|orEnable[0]~combout $end
$var wire 1 ,! display_decoder_1|orEnable[1]~1_combout $end
$var wire 1 -! display_decoder_1|orEnable[2]~combout $end
$var wire 1 .! display_decoder_1|orEnable[3]~2_combout $end
$var wire 1 /! display_decoder_1|orEnable[4]~3_combout $end
$var wire 1 0! display_decoder_1|orEnable[5]~4_combout $end
$var wire 1 1! display_decoder_1|orEnable[5]~5_combout $end
$var wire 1 2! display_decoder_1|orEnable[6]~6_combout $end
$var wire 1 3! display_decoder_1|orEnable[6]~combout $end
$var wire 1 4! duzias_1|counter_dezenas|out [3] $end
$var wire 1 5! duzias_1|counter_dezenas|out [2] $end
$var wire 1 6! duzias_1|counter_dezenas|out [1] $end
$var wire 1 7! duzias_1|counter_dezenas|out [0] $end
$var wire 1 8! fsm_dispensador_1|state [1] $end
$var wire 1 9! fsm_dispensador_1|state [0] $end
$var wire 1 :! counter_display|out [1] $end
$var wire 1 ;! counter_display|out [0] $end
$var wire 1 <! bandeja_1|counter_dezenas|out [3] $end
$var wire 1 =! bandeja_1|counter_dezenas|out [2] $end
$var wire 1 >! bandeja_1|counter_dezenas|out [1] $end
$var wire 1 ?! bandeja_1|counter_dezenas|out [0] $end
$var wire 1 @! duzias_1|counter_unidades|out [3] $end
$var wire 1 A! duzias_1|counter_unidades|out [2] $end
$var wire 1 B! duzias_1|counter_unidades|out [1] $end
$var wire 1 C! duzias_1|counter_unidades|out [0] $end
$var wire 1 D! duzias_1|counter_duzias|out [3] $end
$var wire 1 E! duzias_1|counter_duzias|out [2] $end
$var wire 1 F! duzias_1|counter_duzias|out [1] $end
$var wire 1 G! duzias_1|counter_duzias|out [0] $end
$var wire 1 H! bandeja_1|counter_unidades|out [3] $end
$var wire 1 I! bandeja_1|counter_unidades|out [2] $end
$var wire 1 J! bandeja_1|counter_unidades|out [1] $end
$var wire 1 K! bandeja_1|counter_unidades|out [0] $end
$var wire 1 L! level_to_pulse_PG|state [1] $end
$var wire 1 M! level_to_pulse_PG|state [0] $end
$var wire 1 N! level_to_pulse_start|state [1] $end
$var wire 1 O! level_to_pulse_start|state [0] $end
$var wire 1 P! level_to_pulse_CH|state [1] $end
$var wire 1 Q! level_to_pulse_CH|state [0] $end
$var wire 1 R! level_to_pulse_RO|state [1] $end
$var wire 1 S! level_to_pulse_RO|state [0] $end
$var wire 1 T! dispensador_1|quantidade_rolhas|out [2] $end
$var wire 1 U! dispensador_1|quantidade_rolhas|out [1] $end
$var wire 1 V! dispensador_1|quantidade_rolhas|out [0] $end
$upscope $end
$upscope $end
$enddefinitions $end
#0
$dumpvars
0!
0"
0#
0$
0%
0&
0'
0(
0)
0*
0+
0,
0-
0.
12
11
10
0/
19
18
17
16
15
14
13
0:
0;
1<
x=
1>
1?
1@
0A
0B
0C
0D
0E
0F
0G
0H
0I
0J
0K
0L
0M
0N
0O
0P
0Q
0R
0S
0T
0U
0V
0W
0X
0Y
0Z
0[
0\
0]
0^
0_
1`
0a
0b
0c
0d
0e
0f
0g
0h
0i
0j
0k
0l
1m
0n
0o
1p
0q
0r
0s
0t
0u
0v
0w
0x
0y
0z
0{
0|
1}
1~
0!!
0"!
0#!
0$!
0%!
0&!
1'!
0(!
0)!
0*!
1+!
1,!
1-!
1.!
1/!
00!
11!
12!
13!
07!
06!
05!
04!
09!
08!
0;!
0:!
0?!
0>!
0=!
0<!
0C!
0B!
0A!
0@!
0G!
0F!
0E!
0D!
0K!
0J!
0I!
0H!
0M!
0L!
0O!
0N!
0Q!
0P!
0S!
0R!
0V!
0U!
0T!
$end
#5000
1$
1A
1c
1W
1M
1C
1d
1X
1N
1D
#10000
0$
0A
0c
0W
0M
0C
#15000
1$
1A
1c
1W
1M
1C
1e
0d
1Y
0X
1O
0N
1E
0D
#20000
0$
0A
0c
0W
0M
0C
#25000
1$
1A
1c
1W
1M
1C
1d
1X
1N
1D
1h
1\
1Q
1H
#30000
0$
0A
0c
0W
0M
0C
#35000
1$
1A
1c
1W
1M
1C
1f
0e
0d
1Z
0Y
0X
1P
0O
0N
1F
0E
0D
0h
0\
0Q
0H
#40000
0$
0A
0c
0W
0M
0C
#45000
1$
1A
1c
1W
1M
1C
1d
1X
1N
1D
#50000
0$
0A
0c
0W
0M
0C
#55000
1$
1A
1c
1W
1M
1C
1e
0d
1Y
0X
1O
0N
1E
0D
#60000
1%
0$
1V
0A
0W
0c
0M
0C
0Z
0Y
#65000
1$
1A
1c
1M
1C
1d
1N
1D
1h
1Q
1H
#70000
0$
0A
0c
0M
0C
#75000
1$
1A
1c
1M
1C
1g
0f
0e
0d
1R
0P
0O
0N
1G
0F
0E
0D
0h
0Q
0H
#80000
0$
0A
0c
0M
0C
#85000
1$
1A
1c
1M
1C
1d
1N
1D
#90000
0$
0A
0c
0M
0C
#95000
1$
1A
1c
1M
1C
1e
0d
1O
0N
1E
0D
#100000
0$
0A
0c
0M
0C
#105000
1$
1A
1c
1M
1C
1d
1N
1D
1h
1Q
1H
#110000
0$
0A
0c
0M
0C
#115000
1$
1A
1c
1M
1C
1f
0e
0d
1P
0O
0N
1F
0E
0D
0h
0Q
0H
#120000
0$
0A
0c
0M
0C
#125000
1$
1A
1c
1M
1C
1d
1N
1D
#130000
0$
0A
0c
0M
0C
#135000
1$
1A
1c
1M
1C
1e
0d
1O
0N
1E
0D
#140000
0$
0A
0c
0M
0C
#145000
1$
1A
1c
1M
1C
1d
1N
1D
1h
1Q
1H
#150000
0$
0A
0c
0M
0C
#155000
1$
1A
1c
1M
1C
1i
0g
0f
0e
0d
1S
0R
0P
0O
0N
1I
0G
0F
0E
0D
0h
0Q
0H
#160000
0$
0A
0c
0M
0C
#165000
1$
1A
1c
1M
1C
1d
1N
1D
#170000
0$
0A
0c
0M
0C
#175000
1$
1A
1c
1M
1C
1e
0d
1O
0N
1E
0D
#180000
0$
0A
0c
0M
0C
#185000
1$
1A
1c
1M
1C
1d
1N
1D
1h
1Q
1H
#190000
0$
0A
0c
0M
0C
#195000
1$
1A
1c
1M
1C
1f
0e
0d
1P
0O
0N
1F
0E
0D
0h
0Q
0H
#200000
0$
0A
0c
0M
0C
#205000
1$
1A
1c
1M
1C
1d
1N
1D
#210000
0$
0A
0c
0M
0C
#215000
1$
1A
1c
1M
1C
1e
0d
1O
0N
1E
0D
#220000
0%
0$
0V
0A
0c
0M
0C
#225000
1$
1A
1c
1W
1M
1C
1d
1X
1N
1D
1h
1Q
1H
#230000
0$
0A
0c
0W
0M
0C
#235000
1$
1A
1c
1W
1M
1C
1g
0f
0e
0d
1Y
0X
1R
0P
0O
0N
1G
0F
0E
0D
0h
0Q
0H
#240000
0$
0A
0c
0W
0M
0C
#245000
1$
1A
1c
1W
1M
1C
1d
1X
1N
1D
1\
#250000
0$
0A
0c
0W
0M
0C
#255000
1$
1A
1c
1W
1M
1C
1e
0d
1Z
0Y
0X
1O
0N
1E
0D
0\
#260000
0$
0A
0c
0W
0M
0C
#265000
1$
1A
1c
1W
1M
1C
1d
1X
1N
1D
1h
1Q
1H
#270000
0$
0A
0c
0W
0M
0C
#275000
1$
1A
1c
1W
1M
1C
1f
0e
0d
1Y
0X
1P
0O
0N
1F
0E
0D
1j
0h
1T
0Q
1J
0H
0c
0j
0M
0T
0C
0J
1c
1M
1C
1d
1N
1D
#280000
0$
0A
0c
0W
0M
0C
#285000
1$
1A
1c
1W
1M
1C
1e
0d
1X
1O
0N
1E
0D
1\
#290000
0$
0A
0c
0W
0M
0C
#295000
1$
1A
1c
1W
1M
1C
1d
1[
0Z
0Y
0X
1N
1D
1h
0\
1Q
1H
1j
1T
1J
0c
0M
0C
#300000
0$
0A
0W
#305000
1$
1A
1W
1X
1S!
1Q!
1M!
#310000
0$
0A
0W
#315000
1$
1A
1W
1Y
0X
1k
1R!
0S!
1U
0Q!
1P!
1K
0M!
1L!
1-
1(
1,
#320000
0$
0A
0W
#325000
1$
1A
1W
1X
1\
#330000
0$
0A
0W
#335000
1$
1A
1W
1Z
0Y
0X
0\
#340000
0$
0A
0W
#345000
1$
1A
1W
1X
#350000
0$
0A
0W
#355000
1$
1A
1W
1Y
0X
#360000
0$
0A
0W
#365000
1$
1A
1W
1X
1\
#370000
0$
0A
0W
#375000
1$
1A
1W
1]
0[
0Z
0Y
0X
0\
#380000
0$
0A
0W
#385000
1$
1A
1W
1X
#390000
0$
0A
0W
#395000
1$
1A
1W
1Y
0X
#400000
0$
0A
0W
#405000
1$
1A
1W
1X
1\
#410000
0$
0A
0W
#415000
1$
1A
1W
1Z
0Y
0X
0\
#420000
0$
0A
0W
#425000
1$
1A
1W
1X
#430000
0$
0A
0W
#435000
1$
1A
1W
1Y
0X
#440000
0$
0A
0W
#445000
1$
1A
1W
1X
1\
#450000
0$
0A
0W
#455000
1$
1A
1W
1[
0Z
0Y
0X
0\
#460000
0$
0A
0W
#465000
1$
1A
1W
1X
#470000
0$
0A
0W
#475000
1$
1A
1W
1Y
0X
#480000
0$
0A
0W
#485000
1$
1A
1W
1X
1\
#490000
0$
0A
0W
#495000
1$
1A
1W
1Z
0Y
0X
1^
0\
0W
0^
1W
1X
#500000
0$
0A
0W
#505000
1$
1A
1W
1Y
0X
#510000
0$
0A
0W
#515000
1$
1A
1W
1X
1\
1^
0W
#520000
0$
0A
#525000
1$
1A
1O!
#530000
0$
0A
#535000
1$
1A
1_
1N!
0O!
01!
0/!
0-!
0,!
1*!
1t
0p
0`
0.!
0+!
1v
04
05
07
08
06
09
1.
#540000
0$
0A
#545000
1$
1A
1;!
1a
1|
1{
1w
0v
1l
1/
1+
0.
1*
00
1G!
1K!
0}
0m
#550000
0$
0A
#555000
1$
1A
1:!
0;!
1"!
0{
1z
02!
10!
1-!
01
10
03!
11!
17
03
14
#560000
0$
0A
#565000
1$
1A
1;!
1(!
1%!
1#!
1!!
0z
1y
1&!
0"!
02
11
00!
0'!
0-!
01!
07
04
#570000
0$
0A
#575000
1$
1A
0:!
0;!
0(!
0%!
1$!
0#!
1"!
0!!
0|
0y
1)!
0)!
0&!
12!
10!
1/!
1.!
0$!
0"!
0/
12
00!
0/!
0.!
1'!
13!
11!
15
16
01!
05
06
13
14
04
#580000
0$
0A
#585000
1$
1A
1;!
1|
1{
1/
00
#590000
0$
0A
#595000
1$
1A
1:!
0;!
1"!
0{
1z
02!
10!
1-!
01
10
03!
11!
17
03
14
#600000
0$
0A
#605000
1$
1A
1;!
1(!
1%!
1#!
1!!
0z
1y
1&!
0"!
02
11
00!
0'!
0-!
01!
07
04
#610000
0$
0A
#615000
1$
1A
0:!
0;!
0(!
0%!
1$!
0#!
1"!
0!!
0|
0y
1)!
0)!
0&!
12!
10!
1/!
1.!
0$!
0"!
0/
12
00!
0/!
0.!
1'!
13!
11!
15
16
01!
05
06
13
14
04
#620000
0$
0A
#625000
1$
1A
1;!
1|
1{
1/
00
#630000
0$
0A
#635000
1$
1A
1:!
0;!
1"!
0{
1z
02!
10!
1-!
01
10
03!
11!
17
03
14
#640000
0$
0A
#645000
1$
1A
1;!
1(!
1%!
1#!
1!!
0z
1y
1&!
0"!
02
11
00!
0'!
0-!
01!
07
04
#650000
0$
0A
#655000
1$
1A
0:!
0;!
0(!
0%!
1$!
0#!
1"!
0!!
0|
0y
1)!
0)!
0&!
12!
10!
1/!
1.!
0$!
0"!
0/
12
00!
0/!
0.!
1'!
13!
11!
15
16
01!
05
06
13
14
04
#660000
0$
0A
#665000
1$
1A
1;!
1|
1{
1/
00
#670000
0$
0A
#675000
1$
1A
1:!
0;!
1"!
0{
1z
02!
10!
1-!
01
10
03!
11!
17
03
14
#680000
0$
0A
#685000
1$
1A
1;!
1(!
1%!
1#!
1!!
0z
1y
1&!
0"!
02
11
00!
0'!
0-!
01!
07
04
#690000
0$
0A
#695000
1$
1A
0:!
0;!
0(!
0%!
1$!
0#!
1"!
0!!
0|
0y
1)!
0)!
0&!
12!
10!
1/!
1.!
0$!
0"!
0/
12
00!
0/!
0.!
1'!
13!
11!
15
16
01!
05
06
13
14
04
#700000
0$
0A
#705000
1$
1A
1;!
1|
1{
1/
00
#710000
0$
0A
#715000
1$
1A
1:!
0;!
1"!
0{
1z
02!
10!
1-!
01
10
03!
11!
17
03
14
#720000
0$
0A
#725000
1$
1A
1;!
1(!
1%!
1#!
1!!
0z
1y
1&!
0"!
02
11
00!
0'!
0-!
01!
07
04
#730000
0$
0A
#735000
1$
1A
0:!
0;!
0(!
0%!
1$!
0#!
1"!
0!!
0|
0y
1)!
0)!
0&!
12!
10!
1/!
1.!
0$!
0"!
0/
12
00!
0/!
0.!
1'!
13!
11!
15
16
01!
05
06
13
14
04
#740000
0$
0A
#745000
1$
1A
1;!
1|
1{
1/
00
#750000
0$
0A
#755000
1$
1A
1:!
0;!
1"!
0{
1z
02!
10!
1-!
01
10
03!
11!
17
03
14
#760000
0$
0A
#765000
1$
1A
1;!
1(!
1%!
1#!
1!!
0z
1y
1&!
0"!
02
11
00!
0'!
0-!
01!
07
04
#770000
0$
0A
#775000
1$
1A
0:!
0;!
0(!
0%!
1$!
0#!
1"!
0!!
0|
0y
1)!
0)!
0&!
12!
10!
1/!
1.!
0$!
0"!
0/
12
00!
0/!
0.!
1'!
13!
11!
15
16
01!
05
06
13
14
04
#780000
0$
0A
#785000
1$
1A
1;!
1|
1{
1/
00
#790000
0$
0A
#795000
1$
1A
1:!
0;!
1"!
0{
1z
02!
10!
1-!
01
10
03!
11!
17
03
14
#800000
0$
0A
#805000
1$
1A
1;!
1(!
1%!
1#!
1!!
0z
1y
1&!
0"!
02
11
00!
0'!
0-!
01!
07
04
#810000
0$
0A
#815000
1$
1A
0:!
0;!
0(!
0%!
1$!
0#!
1"!
0!!
0|
0y
1)!
0)!
0&!
12!
10!
1/!
1.!
0$!
0"!
0/
12
00!
0/!
0.!
1'!
13!
11!
15
16
01!
05
06
13
14
04
#820000
0$
0A
#825000
1$
1A
1;!
1|
1{
1/
00
#830000
0$
0A
#835000
1$
1A
1:!
0;!
1"!
0{
1z
02!
10!
1-!
01
10
03!
11!
17
03
14
#840000
0$
0A
#845000
1$
1A
1;!
1(!
1%!
1#!
1!!
0z
1y
1&!
0"!
02
11
00!
0'!
0-!
01!
07
04
#850000
0$
0A
#855000
1$
1A
0:!
0;!
0(!
0%!
1$!
0#!
1"!
0!!
0|
0y
1)!
0)!
0&!
12!
10!
1/!
1.!
0$!
0"!
0/
12
00!
0/!
0.!
1'!
13!
11!
15
16
01!
05
06
13
14
04
#860000
0$
0A
#865000
1$
1A
1;!
1|
1{
1/
00
#870000
0$
0A
#875000
1$
1A
1:!
0;!
1"!
0{
1z
02!
10!
1-!
01
10
03!
11!
17
03
14
#880000
0$
0A
#885000
1$
1A
1;!
1(!
1%!
1#!
1!!
0z
1y
1&!
0"!
02
11
00!
0'!
0-!
01!
07
04
#890000
0$
0A
#895000
1$
1A
0:!
0;!
0(!
0%!
1$!
0#!
1"!
0!!
0|
0y
1)!
0)!
0&!
12!
10!
1/!
1.!
0$!
0"!
0/
12
00!
0/!
0.!
1'!
13!
11!
15
16
01!
05
06
13
14
04
#900000
0$
0A
#905000
1$
1A
1;!
1|
1{
1/
00
#910000
0$
0A
#915000
1$
1A
1:!
0;!
1"!
0{
1z
02!
10!
1-!
01
10
03!
11!
17
03
14
#920000
0$
0A
#925000
1$
1A
1;!
1(!
1%!
1#!
1!!
0z
1y
1&!
0"!
02
11
00!
0'!
0-!
01!
07
04
#930000
0$
0A
#935000
1$
1A
0:!
0;!
0(!
0%!
1$!
0#!
1"!
0!!
0|
0y
1)!
0)!
0&!
12!
10!
1/!
1.!
0$!
0"!
0/
12
00!
0/!
0.!
1'!
13!
11!
15
16
01!
05
06
13
14
04
#940000
0$
0A
#945000
1$
1A
1;!
1|
1{
1/
00
#950000
0$
0A
#955000
1$
1A
1:!
0;!
1"!
0{
1z
02!
10!
1-!
01
10
03!
11!
17
03
14
#960000
0$
0A
#965000
1$
1A
1;!
1(!
1%!
1#!
1!!
0z
1y
1&!
0"!
02
11
00!
0'!
0-!
01!
07
04
#970000
0$
0A
#975000
1$
1A
0:!
0;!
0(!
0%!
1$!
0#!
1"!
0!!
0|
0y
1)!
0)!
0&!
12!
10!
1/!
1.!
0$!
0"!
0/
12
00!
0/!
0.!
1'!
13!
11!
15
16
01!
05
06
13
14
04
#980000
0$
0A
#985000
1$
1A
1;!
1|
1{
1/
00
#990000
0$
0A
#995000
1$
1A
1:!
0;!
1"!
0{
1z
02!
10!
1-!
01
10
03!
11!
17
03
14
