simulation/qsim/automacao.msim.vcd
$comment
	File created using the following command:
		vcd file automacao.msim.vcd -direction
$end
$date
	Thu Feb 15 19:36:08 2024
$end
$version
	ModelSim Version 2020.1
$end
$timescale
	1ps
$end

$scope module automacao_vlg_vec_tst $end
$var reg 1 ! CH $end
$var reg 1 " PG $end
$var reg 1 # RO $end
$var reg 1 $ assync $end
$var reg 1 % clk50MHz $end
$var reg 1 & start $end
$var wire 1 ' A $end
$var wire 1 ( AD $end
$var wire 1 ) BZ_T $end
$var wire 1 * EV $end
$var wire 1 + GP_T $end
$var wire 1 , M $end
$var wire 1 - MC_T $end
$var wire 1 . VE $end
$var wire 1 / debouncedStart_T $end
$var wire 1 0 display_colune [3] $end
$var wire 1 1 display_colune [2] $end
$var wire 1 2 display_colune [1] $end
$var wire 1 3 display_colune [0] $end
$var wire 1 4 display_data [6] $end
$var wire 1 5 display_data [5] $end
$var wire 1 6 display_data [4] $end
$var wire 1 7 display_data [3] $end
$var wire 1 8 display_data [2] $end
$var wire 1 9 display_data [1] $end
$var wire 1 : display_data [0] $end
$var wire 1 ; enable_T $end
$var wire 1 < pulse_T $end
$var wire 1 = reabastecer_T $end

$scope module i1 $end
$var wire 1 > gnd $end
$var wire 1 ? vcc $end
$var wire 1 @ unknown $end
$var tri1 1 A devclrn $end
$var tri1 1 B devpor $end
$var tri1 1 C devoe $end
$var wire 1 D clk50MHz~combout $end
$var wire 1 E start~combout $end
$var wire 1 F debouncer_start|tff0|out~regout $end
$var wire 1 G debouncer_start|tff1|out~regout $end
$var wire 1 H debouncer_start|and2~0_combout $end
$var wire 1 I debouncer_start|andClk~combout $end
$var wire 1 J debouncer_start|tff2|out~regout $end
$var wire 1 K debouncer_start|andOut~0_combout $end
$var wire 1 L level_to_pulse_1|pulse~regout $end
$var wire 1 M ON_OFF|out~regout $end
$var wire 1 N assync~combout $end
$var wire 1 O andOut~combout $end
$var wire 1 P PG~combout $end
$var wire 1 Q CH~combout $end
$var wire 1 R RO~combout $end
$var wire 1 S fsm_producao|next~0_combout $end
$var wire 1 T fsm_producao|state~regout $end
$var wire 1 U fsm_producao|EV~regout $end
$var wire 1 V fsm_producao|VE~regout $end
$var wire 1 W fsm_producao|M~regout $end
$var wire 1 X fsm_producao|GP~regout $end
$var wire 1 Y rtl~0_combout $end
$var wire 1 Z fsm_dispensador_1|AD~regout $end
$var wire 1 [ dispensador_1|comb~0_combout $end
$var wire 1 \ bandeja_1|comb~0_combout $end
$var wire 1 ] bandeja_1|BZ~0_combout $end
$var wire 1 ^ fsm_dispensador_1|nextState[0]~0_combout $end
$var wire 1 _ fsm_dispensador_1|A~regout $end
$var wire 1 ` bandeja_1|MC~combout $end
$var wire 1 a bandeja_1|BZ~combout $end
$var wire 1 b display_colune_mux|Mux2~0_combout $end
$var wire 1 c display_colune_mux|Mux2~1_combout $end
$var wire 1 d display_colune_mux|Mux2~2_combout $end
$var wire 1 e display_colune_mux|Mux0~0_combout $end
$var wire 1 f rtl~1_combout $end
$var wire 1 g rtl~2_combout $end
$var wire 1 h display_data_mux|Mux2~0_combout $end
$var wire 1 i display_data_mux|Mux2~1_combout $end
$var wire 1 j display_data_mux|Mux3~0_combout $end
$var wire 1 k display_data_mux|Mux3~1_combout $end
$var wire 1 l display_data_mux|Mux1~0_combout $end
$var wire 1 m display_data_mux|Mux1~1_combout $end
$var wire 1 n display_data_mux|Mux0~0_combout $end
$var wire 1 o display_data_mux|Mux0~1_combout $end
$var wire 1 p display_decoder_1|orEnable[0]~2_combout $end
$var wire 1 q display_decoder_1|orEnable[0]~3_combout $end
$var wire 1 r display_decoder_1|orEnable[3]~4_combout $end
$var wire 1 s display_decoder_1|orEnable[1]~5_combout $end
$var wire 1 t display_decoder_1|orEnable[2]~combout $end
$var wire 1 u display_decoder_1|orEnable[3]~7_combout $end
$var wire 1 v display_decoder_1|orEnable[4]~combout $end
$var wire 1 w display_decoder_1|orEnable[5]~6_combout $end
$var wire 1 x display_decoder_1|orEnable[6]~8_combout $end
$var wire 1 y display_decoder_1|orEnable[6]~9_combout $end
$var wire 1 z fsm_dispensador_1|state [1] $end
$var wire 1 { fsm_dispensador_1|state [0] $end
$var wire 1 | bandeja_1|counter_unidades|out [3] $end
$var wire 1 } bandeja_1|counter_unidades|out [2] $end
$var wire 1 ~ bandeja_1|counter_unidades|out [1] $end
$var wire 1 !! bandeja_1|counter_unidades|out [0] $end
$var wire 1 "! level_to_pulse_1|state [1] $end
$var wire 1 #! level_to_pulse_1|state [0] $end
$var wire 1 $! bandeja_1|counter_dezenas|out [1] $end
$var wire 1 %! bandeja_1|counter_dezenas|out [0] $end
$var wire 1 &! duzias_1|counter_unidades|out [3] $end
$var wire 1 '! duzias_1|counter_unidades|out [2] $end
$var wire 1 (! duzias_1|counter_unidades|out [1] $end
$var wire 1 )! duzias_1|counter_unidades|out [0] $end
$var wire 1 *! dispensador_1|quantidade_rolhas|out [2] $end
$var wire 1 +! dispensador_1|quantidade_rolhas|out [1] $end
$var wire 1 ,! dispensador_1|quantidade_rolhas|out [0] $end
$var wire 1 -! counter_display|out [1] $end
$var wire 1 .! counter_display|out [0] $end
$var wire 1 /! duzias_1|counter_dezenas|out [3] $end
$var wire 1 0! duzias_1|counter_dezenas|out [2] $end
$var wire 1 1! duzias_1|counter_dezenas|out [1] $end
$var wire 1 2! duzias_1|counter_dezenas|out [0] $end
$var wire 1 3! duzias_1|counter_duzias|out [3] $end
$var wire 1 4! duzias_1|counter_duzias|out [2] $end
$var wire 1 5! duzias_1|counter_duzias|out [1] $end
$var wire 1 6! duzias_1|counter_duzias|out [0] $end
$upscope $end
$upscope $end
$enddefinitions $end
#0
$dumpvars
1!
1"
0#
0$
0%
1&
0'
0(
0)
0*
0+
0,
0-
0.
0/
03
02
01
10
1:
19
18
17
16
15
14
0;
0<
0=
0>
1?
x@
1A
1B
1C
0D
1E
0F
0G
0H
0I
0J
0K
0L
0M
0N
0O
1P
1Q
0R
0S
0T
0U
0V
0W
0X
0Y
0Z
0[
1\
0]
0^
0_
0`
0a
0b
0c
0d
0e
0f
1g
0h
0i
0j
0k
0l
0m
0n
0o
0p
0q
0r
1s
1t
1u
1v
1w
1x
1y
0{
zz
0!!
0~
0}
0|
0#!
0"!
0%!
0$!
0)!
0(!
0'!
0&!
0,!
z+!
z*!
0.!
0-!
02!
01!
00!
0/!
06!
05!
04!
03!
$end
#5000
1%
1D
#10000
0%
0D
#15000
1%
1D
#20000
0%
0D
#25000
1#
1%
1R
1D
#30000
0&
0%
0E
0D
#35000
1%
1D
1I
1F
#37500
1$
1N
#40000
0%
0D
0I
#45000
1%
1D
1I
1G
0F
#50000
0#
0$
0%
0R
0N
0D
0I
#55000
1%
1D
1I
1F
1H
#60000
0%
0D
0I
#65000
1%
1D
1I
1J
0G
0F
0I
0H
1I
1F
#70000
0%
0D
0I
#75000
1#
1%
1R
1D
1I
1G
0F
#80000
0%
0D
0I
#85000
1%
1D
1I
1F
1K
1H
0I
1/
#87500
1$
1N
#90000
0%
0D
#95000
1%
1D
1L
1#!
1<
#100000
0#
0$
0%
0R
0N
0D
#105000
1%
1D
1M
0L
1"!
0#!
0w
0v
0t
0s
1r
0\
1;
0<
0u
05
06
08
09
0:
07
#110000
0%
0D
#115000
1%
1D
1.!
1e
1d
11
00
#120000
0%
0D
#125000
1#
1%
1R
1D
1-!
0.!
0d
1c
01
12
#130000
1&
0%
1E
0D
0K
0/
0J
0G
0F
0H
#135000
1%
1D
1.!
0"!
1m
1j
1h
0c
1b
0x
1v
1q
1i
02
13
0y
0v
1s
16
04
06
19
#137500
1$
1N
1O
1V
1T
1S
1.
#140000
0%
0D
#145000
1%
1D
0-!
0.!
0m
1k
0j
0h
0e
0b
1v
0s
0q
1p
0k
0i
03
10
1w
0r
1x
0v
0p
16
09
1u
1y
0w
1r
15
06
1:
0u
17
14
05
0:
07
#150000
0#
0$
0%
0R
0N
0D
0S
0O
#155000
1%
1D
1.!
1e
1d
11
00
#160000
0%
0D
#165000
1%
1D
1-!
0.!
0d
1c
01
12
#170000
0%
0D
#175000
1#
1%
1R
1D
1S
1.!
1m
1j
1h
0c
1b
0x
1v
1q
1i
02
13
0y
0v
1s
16
04
06
19
#180000
0%
0D
#185000
1%
1D
0-!
0.!
0m
1k
0j
0h
0e
0b
1v
0s
0q
1p
0k
0i
03
10
1w
0r
1x
0v
0p
16
09
1u
1y
0w
1r
15
06
1:
0u
17
14
05
0:
07
#187500
1$
1N
1O
1X
1W
0V
0T
0S
1+
1,
0.
14!
15!
16!
1~
1!!
1]
1`
1-
#190000
0%
0D
#195000
1%
1D
1.!
1e
1d
11
00
#200000
0#
0$
0%
0R
0N
0D
0O
#205000
1%
1D
1-!
0.!
0d
1c
01
12
#210000
0%
0D
#215000
1%
1D
1.!
1m
1j
1h
0c
1b
0x
1v
1q
1k
02
13
0y
0r
1s
0q
16
1u
1r
04
19
1:
0u
17
0:
07
#220000
0%
0D
#225000
1#
1%
1R
1D
0-!
0.!
0m
0j
1i
0h
0e
0b
0s
1p
0k
1w
0i
03
10
0r
1x
0v
0p
09
15
1u
1y
0w
1r
06
1:
0u
17
14
05
0:
07
#230000
0%
0D
#235000
1%
1D
1.!
1e
1d
11
00
#237500
1$
1N
1O
1Z
0X
0W
1V
1T
1\
1[
1S
1(
0+
0,
1.
1=
1,!
0\
0[
0=
#240000
0%
0D
#245000
1%
1D
1-!
0.!
0d
1c
01
12
#250000
0#
0$
0%
0R
0N
0D
0S
0O
#255000
1%
1D
1.!
1m
1j
1h
0c
1b
0x
1v
1q
1k
02
13
0y
0r
1s
0q
16
1u
1r
04
19
1:
0u
17
0:
07
#260000
0%
0D
#265000
1%
1D
0-!
0.!
0m
0j
1i
0h
0e
0b
0s
1p
0k
1w
0i
03
10
0r
1x
0v
0p
09
15
1u
1y
0w
1r
06
1:
0u
17
14
05
0:
07
#270000
0%
0D
#275000
1#
1%
1R
1D
1S
1.!
1e
1d
11
00
#280000
0%
0D
#285000
1%
1D
1-!
0.!
0d
1c
01
12
#287500
1$
1N
1O
1X
1W
0V
0T
0S
1+
1,
0.
06!
0!!
0`
0-
#290000
0%
0D
#295000
1%
1D
1.!
1m
1j
1h
0c
1b
0x
1v
1q
02
13
0y
0r
16
1u
04
1:
17
#300000
0#
0$
0%
0R
0N
0D
0O
#305000
1%
1D
0-!
0.!
0m
1k
0j
1i
0h
0e
0b
0q
1p
0k
1r
0i
03
10
1w
0r
1x
0v
0u
0p
0:
1u
1y
0w
1r
15
06
07
1:
0u
17
14
05
0:
07
#310000
0%
0D
#315000
1%
1D
1.!
1e
1d
11
00
#320000
0%
0D
#325000
1#
1%
1R
1D
1-!
0.!
0d
1c
01
12
#330000
0%
0D
#335000
1%
1D
1.!
1m
1j
1h
0c
1b
0x
1v
1q
02
13
0y
0r
16
1u
04
1:
17
#337500
1$
1N
1O
0Z
0X
0W
1V
1T
1S
0(
0+
0,
1.
#340000
0%
0D
#345000
1%
1D
0-!
0.!
0m
1k
0j
1i
0h
0e
0b
0q
1p
0k
1r
0i
03
10
1w
0r
1x
0v
0u
0p
0:
1u
1y
0w
1r
15
06
07
1:
0u
17
14
05
0:
07
#350000
0#
0$
0%
0R
0N
0D
0S
0O
#355000
1%
1D
1.!
1e
1d
11
00
#360000
0%
0D
#365000
1%
1D
1-!
0.!
0d
1c
01
12
#370000
0%
0D
#375000
1#
1%
1R
1D
1S
1.!
1m
1j
1h
0c
1b
0x
1v
1q
02
13
0y
0r
16
1u
04
1:
17
#380000
0%
0D
#385000
1%
1D
0-!
0.!
0m
1k
0j
1i
0h
0e
0b
0q
1p
0k
1r
0i
03
10
1w
0r
1x
0v
0u
0p
0:
1u
1y
0w
1r
15
06
07
1:
0u
17
14
05
0:
07
#387500
1$
1N
1O
1X
1W
0V
0T
0S
1+
1,
0.
05!
16!
1}
0~
1!!
0]
#390000
0%
0D
#395000
1%
1D
1.!
1e
1d
11
00
#400000
0#
0$
0%
0R
0N
0D
0O
#405000
1%
1D
1-!
0.!
0d
1c
01
12
#410000
0%
0D
#415000
1%
1D
1.!
1j
1h
0c
1b
1k
1i
02
13
0x
1v
1p
1w
0y
16
15
04
#420000
0%
0D
#425000
1#
1%
1R
1D
0-!
0.!
0j
0h
0e
0b
0k
0i
03
10
1x
0v
0p
0r
1y
0w
1r
1u
06
1:
0u
14
05
17
0:
07
#430000
0%
0D
#435000
1%
1D
1.!
1e
1d
11
00
#437500
1$
1N
1O
0X
0W
1V
1T
1S
0+
0,
1.
#440000
0%
0D
#445000
1%
1D
1-!
0.!
0d
1c
01
12
#450000
0#
0$
0%
0R
0N
0D
0S
0O
#455000
1%
1D
1.!
1j
1h
0c
1b
1k
1i
02
13
0x
1v
1p
1w
0y
16
15
04
#460000
0%
0D
#465000
1%
1D
0-!
0.!
0j
0h
0e
0b
0k
0i
03
10
1x
0v
0p
0r
1y
0w
1r
1u
06
1:
0u
14
05
17
0:
07
#470000
0%
0D
#475000
1#
1%
1R
1D
1S
1.!
1e
1d
11
00
#480000
0%
0D
#485000
1%
1D
1-!
0.!
0d
1c
01
12
#487500
1$
1N
1O
1X
1W
0V
0T
0S
1+
1,
0.
06!
0!!
#490000
0%
0D
#495000
1%
1D
1.!
1j
1h
0c
1b
1i
02
13
0x
1w
1t
0y
15
18
04
#500000
0#
0$
0%
0R
0N
0D
0O
#505000
1%
1D
0-!
0.!
1k
0j
0h
0e
0b
1v
0t
1p
0k
0i
03
10
0r
1x
0v
0p
16
08
1u
1y
0w
1r
06
1:
0u
17
14
05
0:
07
#510000
0%
0D
#515000
1%
1D
1.!
1e
1d
11
00
#520000
0%
0D
#525000
1#
1%
1R
1D
1-!
0.!
0d
1c
01
12
#530000
0%
0D
#535000
1%
1D
1.!
1j
1h
0c
1b
1i
02
13
0x
1w
1t
0y
15
18
04
#537500
1$
1N
1O
0X
0W
1V
1T
1S
0+
0,
1.
#540000
0%
0D
#545000
1%
1D
0-!
0.!
1k
0j
0h
0e
0b
1v
0t
1p
0k
0i
03
10
0r
1x
0v
0p
16
08
1u
1y
0w
1r
06
1:
0u
17
14
05
0:
07
#550000
0#
0$
0%
0R
0N
0D
0S
0O
#555000
1%
1D
1.!
1e
1d
11
00
#560000
0%
0D
#565000
1%
1D
1-!
0.!
0d
1c
01
12
#570000
0%
0D
#575000
1#
1%
1R
1D
1S
1.!
1j
1h
0c
1b
1i
02
13
0x
1w
1t
0y
15
18
04
#580000
0%
0D
#585000
1%
1D
0-!
0.!
1k
0j
0h
0e
0b
1v
0t
1p
0k
0i
03
10
0r
1x
0v
0p
16
08
1u
1y
0w
1r
06
1:
0u
17
14
05
0:
07
#587500
1$
1N
1O
1X
1W
0V
0T
0S
1+
1,
0.
13!
04!
15!
16!
1~
1!!
1]
#590000
0%
0D
#595000
1%
1D
1.!
1e
1d
11
00
#600000
0#
0$
0%
0R
0N
0D
0O
#605000
1%
1D
1-!
0.!
0d
1c
01
12
#610000
0%
0D
#615000
1%
1D
1.!
1j
1h
0c
1b
1k
02
13
1v
1p
1w
0r
16
1u
15
1:
17
#620000
0%
0D
#625000
1#
1%
1R
1D
0-!
0.!
0j
1i
0h
0e
0b
0k
0x
1r
0i
03
10
1x
0v
0u
0p
0y
0r
0:
1y
0w
1r
1u
06
07
04
1:
0u
14
05
17
0:
07
#630000
0%
0D
#635000
1%
1D
1.!
1e
1d
11
00
#637500
1$
1N
1O
0X
0W
1V
1T
1S
0+
0,
1.
#640000
0%
0D
#645000
1%
1D
1-!
0.!
0d
1c
01
12
#650000
0#
0$
0%
0R
0N
0D
0S
0O
#655000
1%
1D
1.!
1j
1h
0c
1b
1k
02
13
1v
1p
1w
0r
16
1u
15
1:
17
#660000
0%
0D
#665000
1%
1D
0-!
0.!
0j
1i
0h
0e
0b
0k
0x
1r
0i
03
10
1x
0v
0u
0p
0y
0r
0:
1y
0w
1r
1u
06
07
04
1:
0u
14
05
17
0:
07
#670000
0%
0D
#675000
1#
1%
1R
1D
1S
1.!
1e
1d
11
00
#680000
0%
0D
#685000
1%
1D
1-!
0.!
0d
1c
01
12
#687500
1$
1N
1O
1X
1W
0V
0T
0S
1+
1,
0.
06!
0!!
1a
1^
1)
#690000
0%
0D
#695000
1%
1D
1.!
1j
1h
0c
1b
02
13
#700000
0#
0$
0%
0R
0N
0D
0O
#705000
1%
1D
0-!
0.!
1k
0j
1i
0h
0e
0b
0x
1v
1p
0k
1w
0i
03
10
0y
0r
1x
0v
0p
16
15
1u
1y
0w
1r
04
06
1:
0u
17
14
05
0:
07
#710000
0%
0D
#715000
1%
1D
1.!
1e
1d
11
00
#720000
0%
0D
#725000
1#
1%
1R
1D
1-!
0.!
0d
1c
01
12
#730000
0%
0D
#735000
1%
1D
1.!
1j
1h
0c
1b
02
13
#737500
1$
1N
1O
1_
0X
1{
0W
1V
1T
1S
1'
0+
0,
1.
#740000
0%
0D
#745000
1%
1D
0-!
0.!
1k
0j
1i
0h
0e
0b
0x
1v
1p
0k
1w
0i
03
10
0y
0r
1x
0v
0p
16
15
1u
1y
0w
1r
04
06
1:
0u
17
14
05
0:
07
#750000
0#
0$
0%
0R
0N
0D
0S
0O
#755000
1%
1D
1.!
1e
1d
11
00
#760000
0%
0D
#765000
1%
1D
1-!
0.!
0d
1c
01
12
#770000
0%
0D
#775000
1#
1%
1R
1D
1S
1.!
1j
1h
0c
1b
02
13
#780000
0%
0D
#785000
1%
1D
0-!
0.!
1k
0j
1i
0h
0e
0b
0x
1v
1p
0k
1w
0i
03
10
0y
0r
1x
0v
0p
16
15
1u
1y
0w
1r
04
06
1:
0u
17
14
05
0:
07
#787500
1$
1N
1O
1X
1W
0V
0T
0S
1+
1,
0.
05!
16!
1|
0}
0~
1!!
0]
0a
1`
0`
0)
1-
0-
#790000
0%
0D
#795000
1%
1D
1.!
1e
1d
11
00
#800000
0#
0$
0%
0R
0N
0D
0O
#805000
1%
1D
1-!
0.!
0d
1c
01
12
#810000
0%
0D
#815000
1%
1D
1.!
1n
1m
1j
1h
0c
1b
0x
1v
1q
1k
1i
02
13
0y
1x
1u
0q
16
1y
1w
04
17
14
15
#820000
0%
0D
#825000
1#
1%
1R
1D
0-!
0.!
0n
0m
0j
0h
0e
0b
0x
1p
0u
0k
0i
03
10
0y
0r
1x
0v
0p
07
1u
1y
0w
1r
04
06
1:
0u
17
14
05
0:
07
#830000
0%
0D
#835000
1%
1D
1.!
1e
1d
11
00
#837500
1$
1N
1O
0X
0W
1V
1T
1S
0+
0,
1.
#840000
0%
0D
#845000
1%
1D
1-!
0.!
0d
1c
01
12
#850000
0#
0$
0%
0R
0N
0D
0S
0O
#855000
1%
1D
1.!
1n
1m
1j
1h
0c
1b
0x
1v
1q
1k
1i
02
13
0y
1x
1u
0q
16
1y
1w
04
17
14
15
#860000
0%
0D
#865000
1%
1D
0-!
0.!
0n
0m
0j
0h
0e
0b
0x
1p
0u
0k
0i
03
10
0y
0r
1x
0v
0p
07
1u
1y
0w
1r
04
06
1:
0u
17
14
05
0:
07
#870000
0%
0D
#875000
1#
1%
1R
1D
1S
1.!
1e
1d
11
00
#880000
0%
0D
#885000
1%
1D
1-!
0.!
0d
1c
01
12
#887500
1$
1N
1O
1X
1W
0V
0T
0S
1+
1,
0.
06!
0!!
#890000
0%
0D
#895000
1%
1D
1.!
1n
1m
1j
1h
0c
1b
0x
1v
1q
1i
02
13
0y
0v
1s
16
04
06
19
#900000
0#
0$
0%
0R
0N
0D
0O
#905000
1%
1D
0-!
0.!
0n
0m
1k
0j
0h
0e
0b
1p
1v
0s
0q
0k
0i
03
10
1w
0r
1x
0v
0p
16
09
1u
1y
0w
1r
15
06
1:
0u
17
14
05
0:
07
#910000
0%
0D
#915000
1%
1D
1.!
1e
1d
11
00
#920000
0%
0D
#925000
1#
1%
1R
1D
1-!
0.!
0d
1c
01
12
#930000
0%
0D
#935000
1%
1D
1.!
1n
1m
1j
1h
0c
1b
0x
1v
1q
1i
02
13
0y
0v
1s
16
04
06
19
#937500
1$
1N
1O
0X
0W
1V
1T
1S
0+
0,
1.
#940000
0%
0D
#945000
1%
1D
0-!
0.!
0n
0m
1k
0j
0h
0e
0b
1p
1v
0s
0q
0k
0i
03
10
1w
0r
1x
0v
0p
16
09
1u
1y
0w
1r
15
06
1:
0u
17
14
05
0:
07
#950000
0#
0$
0%
0R
0N
0D
0S
0O
#955000
1%
1D
1.!
1e
1d
11
00
#960000
0%
0D
#965000
1%
1D
1-!
0.!
0d
1c
01
12
#970000
0%
0D
#975000
1#
1%
1R
1D
1S
1.!
1n
1m
1j
1h
0c
1b
0x
1v
1q
1i
02
13
0y
0v
1s
16
04
06
19
#980000
0%
0D
#985000
1%
1D
0-!
0.!
0n
0m
1k
0j
0h
0e
0b
1p
1v
0s
0q
0k
0i
03
10
1w
0r
1x
0v
0p
16
09
1u
1y
0w
1r
15
06
1:
0u
17
14
05
0:
07
#987500
1$
1N
1O
1X
1W
0V
0T
0S
1+
1,
0.
14!
15!
16!
1~
1!!
#990000
0%
0D
#995000
1%
1D
1.!
1e
1d
11
00
